{
    "meta": {
        "limit": 20,
        "next": "/api/2.0/ledger/?limit=20&offset=20",
        "offset": 0,
        "previous": null,
        "total_count": 9921
    },
    "objects": [
        {
            "amount": "0.00173818150273075810",
            "billing_cycle": 68844,
            "end": "128.20175975233523933736",
            "id": "11042920",
            "initial": "128.20349793383797009546",
            "reason": "Burst: 57783091200 of dssd for 299 seconds at 2013-07-09 07:49:06+00:00",
            "time": "2013-07-09T07:49:54+00:00"
        },
        {
            "amount": "0.00174399481879340278",
            "billing_cycle": 68844,
            "end": "128.20349793383797009546",
            "id": "11042919",
            "initial": "128.20524192865676349824",
            "reason": "Burst: 57783091200 of dssd for 300 seconds at 2013-07-09 07:44:06+00:00",
            "time": "2013-07-09T07:49:54+00:00"
        },
        {
            "amount": "0.00173818150273075810",
            "billing_cycle": 68843,
            "end": "128.20524192865676349824",
            "id": "11042661",
            "initial": "128.20698011015949425634",
            "reason": "Burst: 57783091200 of dssd for 299 seconds at 2013-07-09 07:39:06+00:00",
            "time": "2013-07-09T07:40:05+00:00"
        },
        {
            "amount": "0.00174399481879340278",
            "billing_cycle": 68843,
            "end": "128.20698011015949425634",
            "id": "11042660",
            "initial": "128.20872410497828765912",
            "reason": "Burst: 57783091200 of dssd for 300 seconds at 2013-07-09 07:34:06+00:00",
            "time": "2013-07-09T07:40:04+00:00"
        }
    ]
}