{
  "networkDomain": [
    {
      "name": "test",
      "description": "",
      "type": "ESSENTIALS",
      "snatIpv4Address": "168.128.3.44",
      "createTime": "2016-03-08T14:39:47.000Z",
      "state": "NORMAL",
      "id": "8e082ed6-c198-4eff-97cb-aeac6f9685d8",
      "datacenterId": "NA9"
    },
    {
      "name": "test",
      "description": "",
      "type": "ESSENTIALS",
      "snatIpv4Address": "168.128.3.44",
      "createTime": "2016-03-08T14:39:47.000Z",
      "state": "NORMAL",
      "id": "8e082ed6-c198-4eff-97cb-aeac6f9685d8",
      "datacenterId": "NA9"
    },
    {
      "name": "test",
      "description": "",
      "type": "ESSENTIALS",
      "snatIpv4Address": "168.128.3.44",
      "createTime": "2016-03-08T14:39:47.000Z",
      "state": "NORMAL",
      "id": "8e082ed6-c198-4eff-97cb-aeac6f9685d8",
      "datacenterId": "NA9"
    },
    {
      "name": "test",
      "description": "",
      "type": "ESSENTIALS",
      "snatIpv4Address": "168.128.3.44",
      "createTime": "2016-03-08T14:39:47.000Z",
      "state": "NORMAL",
      "id": "8e082ed6-c198-4eff-97cb-aeac6f9685d8",
      "datacenterId": "NA9"
    },
    {
      "name": "test",
      "description": "",
      "type": "ESSENTIALS",
      "snatIpv4Address": "168.128.3.44",
      "createTime": "2016-03-08T14:39:47.000Z",
      "state": "NORMAL",
      "id": "8e082ed6-c198-4eff-97cb-aeac6f9685d8",
      "datacenterId": "NA9"
    },
    {
      "name": "test",
      "description": "",
      "type": "ESSENTIALS",
      "snatIpv4Address": "168.128.3.44",
      "createTime": "2016-03-08T14:39:47.000Z",
      "state": "NORMAL",
      "id": "8e082ed6-c198-4eff-97cb-aeac6f9685d8",
      "datacenterId": "NA9"
    },
    {
      "name": "test",
      "description": "",
      "type": "ESSENTIALS",
      "snatIpv4Address": "168.128.3.44",
      "createTime": "2016-03-08T14:39:47.000Z",
      "state": "NORMAL",
      "id": "8e082ed6-c198-4eff-97cb-aeac6f9685d8",
      "datacenterId": "NA9"
    },
    {
      "name": "test",
      "description": "",
      "type": "ESSENTIALS",
      "snatIpv4Address": "168.128.3.44",
      "createTime": "2016-03-08T14:39:47.000Z",
      "state": "NORMAL",
      "id": "8e082ed6-c198-4eff-97cb-aeac6f9685d8",
      "datacenterId": "NA9"
    },
    {
      "name": "test",
      "description": "",
      "type": "ESSENTIALS",
      "snatIpv4Address": "168.128.3.44",
      "createTime": "2016-03-08T14:39:47.000Z",
      "state": "NORMAL",
      "id": "8e082ed6-c198-4eff-97cb-aeac6f9685d8",
      "datacenterId": "NA9"
    },
    {
      "name": "test",
      "description": "",
      "type": "ESSENTIALS",
      "snatIpv4Address": "168.128.3.44",
      "createTime": "2016-03-08T14:39:47.000Z",
      "state": "NORMAL",
      "id": "8e082ed6-c198-4eff-97cb-aeac6f9685d8",
      "datacenterId": "NA9"
    }
  ],
  "pageNumber": 1,
  "pageCount": 10,
  "totalCount": 20,
  "pageSize": 10
}