{
  "operatingSystem": [
    {
      "id": "WIN2003S32",
      "displayName": "WIN2003S/32",
      "family": "WINDOWS"
    },
    {
      "id": "WIN2003S64",
      "displayName": "WIN2003S/64",
      "family": "WINDOWS"
    },
    {
      "id": "WIN2008E32",
      "displayName": "WIN2008E/32",
      "family": "WINDOWS"
    },
    {
      "id": "WIN2008E64",
      "displayName": "WIN2008E/64",
      "family": "WINDOWS"
    },
    {
      "id": "WIN2008R2DC64",
      "displayName": "WIN2008R2DC/64",
      "family": "WINDOWS"
    },
    {
      "id": "WIN2008R2E64",
      "displayName": "WIN2008R2E/64",
      "family": "WINDOWS"
    },
    {
      "id": "WIN2008R2S64",
      "displayName": "WIN2008R2S/64",
      "family": "WINDOWS"
    },
    {
      "id": "WIN2008S32",
      "displayName": "WIN2008S/32",
      "family": "WINDOWS"
    },
    {
      "id": "WIN2008S64",
      "displayName": "WIN2008S/64",
      "family": "WINDOWS"
    },
    {
      "id": "WIN2012DC64",
      "displayName": "WIN2012DC/64",
      "family": "WINDOWS"
    },
    {
      "id": "WIN2012R2DC64",
      "displayName": "WIN2012R2DC/64",
      "family": "WINDOWS"
    },
    {
      "id": "WIN2012R2S64",
      "displayName": "WIN2012R2S/64",
      "family": "WINDOWS"
    },
    {
      "id": "WIN2012S64",
      "displayName": "WIN2012S/64",
      "family": "WINDOWS"
    }
  ],
  "pageNumber": 2,
  "pageCount": 13,
  "totalCount": 33,
  "pageSize": 20
}